<?xml version="1.0" encoding="UTF-8"?>
<svg width="130px" height="55px" viewBox="0 0 130 55" version="1.1" xmlns="http://www.w3.org/2000/svg" xmlns:xlink="http://www.w3.org/1999/xlink">
    <!-- Generator: Sketch 57 (83077) - https://sketch.com -->
    <title>Combined Shape</title>
    <desc>Created with Sketch.</desc>
    <g id="Page-1" stroke="none" stroke-width="1" fill="none" fill-rule="evenodd">
        <g id="Artboard" transform="translate(-130.000000, -167.000000)" fill="#FFFFFF">
            <path d="M205.831588,246.138525 L205.831588,250.292776 L199.553,250.292 L199.553753,259 L190.447574,259 L190.447,250.292 L184.168412,250.292776 L184.168412,246.138525 L205.831588,246.138525 Z M216.663177,235.635706 L216.663177,243.945555 L173.335496,243.945555 L173.335496,235.635706 L216.663177,235.635706 Z M222,223.872063 L222,232.180565 L168,232.180565 L168,223.872063 L222,223.872063 Z M201.716886,170.223684 L201.716886,218.716886 L188.776316,218.716886 L188.776316,170.223684 L201.716886,170.223684 Z M222,156.819435 L222,165.127937 L168,165.127937 L168,156.819435 L222,156.819435 Z M216.664504,145.054445 L216.664504,153.364294 L173.336823,153.364294 L173.336823,145.054445 L216.664504,145.054445 Z M199.552426,130 L199.552,138.707 L205.831588,138.707224 L205.831588,142.861475 L184.168412,142.861475 L184.168412,138.707224 L190.446,138.707 L190.446247,130 L199.552426,130 Z" id="Combined-Shape" transform="translate(195.000000, 194.500000) rotate(-90.000000) translate(-195.000000, -194.500000) "></path>
        </g>
    </g>
</svg>